<?xml version="1.0" encoding="UTF-8" standalone="no"?>
<!-- Created with Inkscape (http://www.inkscape.org/) -->

<svg
   xmlns:dc="http://purl.org/dc/elements/1.1/"
   xmlns:cc="http://creativecommons.org/ns#"
   xmlns:rdf="http://www.w3.org/1999/02/22-rdf-syntax-ns#"
   xmlns:svg="http://www.w3.org/2000/svg"
   xmlns="http://www.w3.org/2000/svg"
   xmlns:sodipodi="http://sodipodi.sourceforge.net/DTD/sodipodi-0.dtd"
   xmlns:inkscape="http://www.inkscape.org/namespaces/inkscape"
   id="svg4085"
   version="1.1"
   inkscape:version="0.48.4 r9939"
   width="888.24219"
   height="435"
   xml:space="preserve"
   sodipodi:docname="CaseStudy2_BankAccount.svg"><metadata
     id="metadata4091"><rdf:RDF><cc:Work
         rdf:about=""><dc:format>image/svg+xml</dc:format><dc:type
           rdf:resource="http://purl.org/dc/dcmitype/StillImage" /><dc:title></dc:title></cc:Work></rdf:RDF></metadata><defs
     id="defs4089"><clipPath
       clipPathUnits="userSpaceOnUse"
       id="clipPath4101"><path
         d="M 0,454 0,0 1830,0 1830,454 0,454 z"
         id="path4103"
         inkscape:connector-curvature="0" /></clipPath><clipPath
       clipPathUnits="userSpaceOnUse"
       id="clipPath4111"><path
         d="M 0,454 0,0 1830,0 1830,454 0,454 z"
         id="path4113"
         inkscape:connector-curvature="0" /></clipPath><clipPath
       clipPathUnits="userSpaceOnUse"
       id="clipPath4119"><path
         d="M 0,454 0,0 1830,0 1830,454 0,454 z"
         id="path4121"
         inkscape:connector-curvature="0" /></clipPath></defs><sodipodi:namedview
     pagecolor="#ffffff"
     bordercolor="#666666"
     borderopacity="1"
     objecttolerance="10"
     gridtolerance="10"
     guidetolerance="10"
     inkscape:pageopacity="0"
     inkscape:pageshadow="2"
     inkscape:window-width="1865"
     inkscape:window-height="1056"
     id="namedview4087"
     showgrid="false"
     fit-margin-top="0"
     fit-margin-left="0"
     fit-margin-right="0"
     fit-margin-bottom="0"
     inkscape:zoom="1.2170492"
     inkscape:cx="409.53189"
     inkscape:cy="306.05508"
     inkscape:window-x="55"
     inkscape:window-y="24"
     inkscape:window-maximized="1"
     inkscape:current-layer="g4093" /><g
     id="g4093"
     inkscape:groupmode="layer"
     inkscape:label="CaseStudy2_BankAccount"
     transform="matrix(1.25,0,0,-1.25,-1.7578128,556.25)"><g
       id="g4095" /><path
       inkscape:connector-curvature="0"
       id="path4127"
       style="fill:none;stroke:#000000;stroke-width:2;stroke-linecap:round;stroke-linejoin:round;stroke-miterlimit:10;stroke-opacity:1;stroke-dasharray:none"
       d="M 365,420 200,320" /><path
       inkscape:connector-curvature="0"
       id="path4129"
       style="fill:none;stroke:#000000;stroke-width:2;stroke-linecap:round;stroke-linejoin:round;stroke-miterlimit:10;stroke-opacity:1;stroke-dasharray:none"
       d="M 365,420 531,320" /><path
       inkscape:connector-curvature="0"
       id="path4131"
       style="fill:none;stroke:#000000;stroke-width:2;stroke-linecap:round;stroke-linejoin:round;stroke-miterlimit:10;stroke-opacity:1;stroke-dasharray:none"
       d="m 411.22,391.76 c -26.84,-9.7 -64.34,-9.67 -91.12,0.06" /><path
       inkscape:connector-curvature="0"
       id="path4133"
       style="fill:none;stroke:#000000;stroke-width:2;stroke-linecap:round;stroke-linejoin:round;stroke-miterlimit:10;stroke-opacity:1;stroke-dasharray:none"
       d="M 200,320 165,221" /><path
       inkscape:connector-curvature="0"
       id="path4135"
       style="fill:none;stroke:#000000;stroke-width:2;stroke-linecap:round;stroke-linejoin:round;stroke-miterlimit:10;stroke-opacity:1;stroke-dasharray:none"
       d="m 200,320 34,-99" /><path
       inkscape:connector-curvature="0"
       id="path4137"
       style="fill:none;stroke:#000000;stroke-width:2;stroke-linecap:round;stroke-linejoin:round;stroke-miterlimit:10;stroke-opacity:1;stroke-dasharray:none"
       d="m 211.32,286.85 c -7.34,-2.49 -15.3,-2.46 -22.62,0.1" /><path
       inkscape:connector-curvature="0"
       id="path4139"
       style="fill:none;stroke:#000000;stroke-width:2;stroke-linecap:round;stroke-linejoin:round;stroke-miterlimit:10;stroke-opacity:1;stroke-dasharray:none"
       d="M 165,221 60,121" /><path
       inkscape:connector-curvature="0"
       id="path4141"
       style="fill:none;stroke:#000000;stroke-width:2;stroke-linecap:round;stroke-linejoin:round;stroke-miterlimit:10;stroke-opacity:1;stroke-dasharray:none"
       d="M 165,221 176,121" /><path
       inkscape:connector-curvature="0"
       id="path4143"
       style="fill:none;stroke:#000000;stroke-width:2;stroke-linecap:round;stroke-linejoin:round;stroke-miterlimit:10;stroke-opacity:1;stroke-dasharray:none"
       d="M 165,221 270,121" /><path
       inkscape:connector-curvature="0"
       id="path4145"
       style="fill:none;stroke:#000000;stroke-width:2;stroke-linecap:round;stroke-linejoin:round;stroke-miterlimit:10;stroke-opacity:1;stroke-dasharray:none"
       d="M 531,320 416,221" /><path
       inkscape:connector-curvature="0"
       id="path4147"
       style="fill:none;stroke:#000000;stroke-width:2;stroke-linecap:round;stroke-linejoin:round;stroke-miterlimit:10;stroke-opacity:1;stroke-dasharray:none"
       d="m 531,320 3,-99" /><path
       inkscape:connector-curvature="0"
       id="path4149"
       style="fill:none;stroke:#000000;stroke-width:2;stroke-linecap:round;stroke-linejoin:round;stroke-miterlimit:10;stroke-opacity:1;stroke-dasharray:none"
       d="M 531,320 646,221" /><path
       inkscape:connector-curvature="0"
       id="path4151"
       style="fill:none;stroke:#000000;stroke-width:2;stroke-linecap:round;stroke-linejoin:round;stroke-miterlimit:10;stroke-opacity:1;stroke-dasharray:none"
       d="m 559.95,294.8 c -16,-13.1 -41.43,-13.05 -57.36,0.11" /><path
       inkscape:connector-curvature="0"
       id="path4153"
       style="fill:none;stroke:#000000;stroke-width:2;stroke-linecap:round;stroke-linejoin:round;stroke-miterlimit:10;stroke-opacity:1;stroke-dasharray:none"
       d="M 416,221 359,121" /><path
       inkscape:connector-curvature="0"
       id="path4155"
       style="fill:none;stroke:#000000;stroke-width:2;stroke-linecap:round;stroke-linejoin:round;stroke-miterlimit:10;stroke-opacity:1;stroke-dasharray:none"
       d="M 416,221 472,121" /><path
       inkscape:connector-curvature="0"
       id="path4157"
       style="fill:none;stroke:#000000;stroke-width:2;stroke-linecap:round;stroke-linejoin:round;stroke-miterlimit:10;stroke-opacity:1;stroke-dasharray:none"
       d="M 646,221 604,121" /><path
       inkscape:connector-curvature="0"
       id="path4159"
       style="fill:none;stroke:#000000;stroke-width:2;stroke-linecap:round;stroke-linejoin:round;stroke-miterlimit:10;stroke-opacity:1;stroke-dasharray:none"
       d="M 646,221 688,121" /><path
       inkscape:connector-curvature="0"
       id="path4161"
       style="fill:none;stroke:#000000;stroke-width:2;stroke-linecap:round;stroke-linejoin:round;stroke-miterlimit:10;stroke-opacity:1;stroke-dasharray:none"
       d="m 660.14,186.86 c -9.06,-1.82 -18.67,-1.8 -27.71,0.06" /><path
       inkscape:connector-curvature="0"
       id="path4163"
       style="fill:#ffffff;fill-opacity:1;fill-rule:nonzero;stroke:none"
       d="m 428,420 c 0,-13.25 -28.43,-24 -63.5,-24 -35.07,0 -63.5,10.75 -63.5,24 0,13.25 28.43,24 63.5,24 35.07,0 63.5,-10.75 63.5,-24 z" /><path
       inkscape:connector-curvature="0"
       id="path4165"
       style="fill:#00ff00;stroke:#000000;stroke-width:2;stroke-linecap:round;stroke-linejoin:round;stroke-miterlimit:10;stroke-opacity:1;stroke-dasharray:none;fill-opacity:0.42009132999999999"
       d="m 428,420 c 0,-13.25 -28.43,-24 -63.5,-24 -35.07,0 -63.5,10.75 -63.5,24 0,13.25 28.43,24 63.5,24 35.07,0 63.5,-10.75 63.5,-24 z" /><text
       id="text4167"
       transform="scale(1,-1)"
       x="322"
       y="-415"><tspan
         id="tspan4169"
         sodipodi:role="line"
         y="-415"
         x="322 330.7851 338.23819 345.69128 352.47235 356.58945 365.37454 372.15564 378.93671 386.3898 393.8429 401.29599"
         style="font-size:12px;font-variant:normal;font-weight:normal;writing-mode:lr-tb;fill:#000000;fill-opacity:1;fill-rule:nonzero;stroke:none;font-family:Helvetica;-inkscape-font-specification:Helvetica">Bank Account</tspan></text>
<path
       inkscape:connector-curvature="0"
       id="path4171"
       style="fill:#ffffff;fill-opacity:1;fill-rule:nonzero;stroke:none"
       d="m 223,321 c 0,-13.25 -10.75,-24 -24,-24 -13.25,0 -24,10.75 -24,24 0,13.25 10.75,24 24,24 13.25,0 24,-10.75 24,-24 z" /><path
       inkscape:connector-curvature="0"
       id="path4173"
       style="fill:#00ff00;stroke:#000000;stroke-width:2;stroke-linecap:round;stroke-linejoin:round;stroke-miterlimit:10;stroke-opacity:1;stroke-dasharray:none;fill-opacity:0.42009132999999999"
       d="m 223,321 c 0,-13.25 -10.75,-24 -24,-24 -13.25,0 -24,10.75 -24,24 0,13.25 10.75,24 24,24 13.25,0 24,-10.75 24,-24 z" /><text
       id="text4175"
       transform="scale(1,-1)"
       x="187"
       y="-316"><tspan
         id="tspan4177"
         sodipodi:role="line"
         y="-316"
         x="187 195.286 202.89999"
         style="font-size:12px;font-variant:normal;font-weight:normal;writing-mode:lr-tb;fill:#000000;fill-opacity:1;fill-rule:nonzero;stroke:none;font-family:Helvetica;-inkscape-font-specification:Helvetica">ATM</tspan></text>
<path
       inkscape:connector-curvature="0"
       id="path4179"
       style="fill:#ffffff;fill-opacity:1;fill-rule:nonzero;stroke:none"
       d="m 188,222 c 0,-13.25 -10.75,-24 -24,-24 -13.25,0 -24,10.75 -24,24 0,13.25 10.75,24 24,24 13.25,0 24,-10.75 24,-24 z" /><path
       inkscape:connector-curvature="0"
       id="path4181"
       style="fill:#00ff00;stroke:#000000;stroke-width:2;stroke-linecap:round;stroke-linejoin:round;stroke-miterlimit:10;stroke-opacity:1;stroke-dasharray:none;fill-opacity:0.42009132999999999"
       d="m 188,222 c 0,-13.25 -10.75,-24 -24,-24 -13.25,0 -24,10.75 -24,24 0,13.25 10.75,24 24,24 13.25,0 24,-10.75 24,-24 z" /><text
       id="text4183"
       transform="scale(1,-1)"
       x="154"
       y="-217"><tspan
         id="tspan4185"
         sodipodi:role="line"
         y="-217"
         x="154 161.87801 165.088"
         style="font-size:12px;font-variant:normal;font-weight:normal;writing-mode:lr-tb;fill:#000000;fill-opacity:1;fill-rule:nonzero;stroke:none;font-family:Helvetica;-inkscape-font-specification:Helvetica">PIN</tspan></text>
<path
       inkscape:connector-curvature="0"
       id="path4187"
       style="fill:#ffffff;fill-opacity:1;fill-rule:nonzero;stroke:none"
       d="M 109,122 C 109,108.75 86.84,98 59.5,98 32.16,98 10,108.75 10,122 c 0,13.25 22.16,24 49.5,24 27.34,0 49.5,-10.75 49.5,-24 z" /><path
       inkscape:connector-curvature="0"
       id="path4189"
       style="fill:#00ff00;stroke:#000000;stroke-width:2;stroke-linecap:round;stroke-linejoin:round;stroke-miterlimit:10;stroke-opacity:1;stroke-dasharray:none;fill-opacity:0.42009132999999999"
       d="M 109,122 C 109,108.75 86.84,98 59.5,98 32.16,98 10,108.75 10,122 c 0,13.25 22.16,24 49.5,24 27.34,0 49.5,-10.75 49.5,-24 z" /><text
       id="text4191"
       transform="scale(1,-1)"
       x="27"
       y="-117"><tspan
         id="tspan4193"
         sodipodi:role="line"
         y="-117"
         x="27 35.733002 43.134003 49.862999 57.264 63.993 71.393997 76.119003 83.520004"
         style="font-size:12px;font-variant:normal;font-weight:normal;writing-mode:lr-tb;fill:#000000;fill-opacity:1;fill-rule:nonzero;stroke:none;font-family:Helvetica;-inkscape-font-specification:Helvetica">Eavesdrop</tspan></text>
<path
       inkscape:connector-curvature="0"
       id="path4195"
       style="fill:#ffffff;fill-opacity:1;fill-rule:nonzero;stroke:none"
       d="m 220,122 c 0,-13.25 -20.15,-24 -45,-24 -24.85,0 -45,10.75 -45,24 0,13.25 20.15,24 45,24 24.85,0 45,-10.75 45,-24 z" /><path
       inkscape:connector-curvature="0"
       id="path4197"
       style="fill:none;stroke:#000000;stroke-width:2;stroke-linecap:round;stroke-linejoin:round;stroke-miterlimit:10;stroke-opacity:1;stroke-dasharray:none"
       d="m 220,122 c 0,-13.25 -20.15,-24 -45,-24 -24.85,0 -45,10.75 -45,24 0,13.25 20.15,24 45,24 24.85,0 45,-10.75 45,-24 z" /><text
       id="text4199"
       transform="scale(1,-1)"
       x="145"
       y="-117"><tspan
         id="tspan4201"
         sodipodi:role="line"
         y="-117"
         x="145 153.03999 156.412 163.79199 171.172 175.216 184.588 191.968 196.01199"
         style="font-size:12px;font-variant:normal;font-weight:normal;writing-mode:lr-tb;fill:#000000;fill-opacity:1;fill-rule:nonzero;stroke:none;font-family:Helvetica;-inkscape-font-specification:Helvetica">Find Note</tspan></text>
<path
       inkscape:connector-curvature="0"
       id="path4203"
       style="fill:#ffffff;fill-opacity:1;fill-rule:nonzero;stroke:none"
       d="m 297,122 c 0,-13.25 -12.31,-24 -27.5,-24 -15.19,0 -27.5,10.75 -27.5,24 0,13.25 12.31,24 27.5,24 15.19,0 27.5,-10.75 27.5,-24 z" /><path
       inkscape:connector-curvature="0"
       id="path4205"
       style="fill:none;stroke:#000000;stroke-width:2;stroke-linecap:round;stroke-linejoin:round;stroke-miterlimit:10;stroke-opacity:1;stroke-dasharray:none"
       d="m 297,122 c 0,-13.25 -12.31,-24 -27.5,-24 -15.19,0 -27.5,10.75 -27.5,24 0,13.25 12.31,24 27.5,24 15.19,0 27.5,-10.75 27.5,-24 z" /><text
       id="text4207"
       transform="scale(1,-1)"
       x="253"
       y="-117"><tspan
         id="tspan4209"
         sodipodi:role="line"
         y="-117"
         x="253 260.953 268.246 272.86301 279.48401"
         style="font-size:12px;font-variant:normal;font-weight:normal;writing-mode:lr-tb;fill:#000000;fill-opacity:1;fill-rule:nonzero;stroke:none;font-family:Helvetica;-inkscape-font-specification:Helvetica">Force</tspan></text>
<path
       inkscape:connector-curvature="0"
       id="path4211"
       style="fill:#ffffff;fill-opacity:1;fill-rule:nonzero;stroke:none"
       d="m 258,222 c 0,-13.25 -10.75,-24 -24,-24 -13.25,0 -24,10.75 -24,24 0,13.25 10.75,24 24,24 13.25,0 24,-10.75 24,-24 z" /><path
       inkscape:connector-curvature="0"
       id="path4213"
       style="fill:#00ff00;stroke:#000000;stroke-width:2;stroke-linecap:round;stroke-linejoin:round;stroke-miterlimit:10;stroke-opacity:1;stroke-dasharray:none;fill-opacity:0.42009132999999999"
       d="m 258,222 c 0,-13.25 -10.75,-24 -24,-24 -13.25,0 -24,10.75 -24,24 0,13.25 10.75,24 24,24 13.25,0 24,-10.75 24,-24 z" /><text
       id="text4215"
       transform="scale(1,-1)"
       x="220"
       y="-217"><tspan
         id="tspan4217"
         sodipodi:role="line"
         y="-217"
         x="220 229.424 236.856 241.612"
         style="font-size:12px;font-variant:normal;font-weight:normal;writing-mode:lr-tb;fill:#000000;fill-opacity:1;fill-rule:nonzero;stroke:none;font-family:Helvetica;-inkscape-font-specification:Helvetica">Card</tspan></text>
<path
       inkscape:connector-curvature="0"
       id="path4219"
       style="fill:#ffffff;fill-opacity:1;fill-rule:nonzero;stroke:none"
       d="m 561,321 c 0,-13.25 -13.66,-24 -30.5,-24 -16.84,0 -30.5,10.75 -30.5,24 0,13.25 13.66,24 30.5,24 16.84,0 30.5,-10.75 30.5,-24 z" /><path
       inkscape:connector-curvature="0"
       id="path4221"
       style="fill:#00ff00;stroke:#000000;stroke-width:2;stroke-linecap:round;stroke-linejoin:round;stroke-miterlimit:10;stroke-opacity:1;stroke-dasharray:none;fill-opacity:0.42009132999999999"
       d="m 561,321 c 0,-13.25 -13.66,-24 -30.5,-24 -16.84,0 -30.5,10.75 -30.5,24 0,13.25 13.66,24 30.5,24 16.84,0 30.5,-10.75 30.5,-24 z" /><text
       id="text4223"
       transform="scale(1,-1)"
       x="512"
       y="-316"><tspan
         id="tspan4225"
         sodipodi:role="line"
         y="-316"
         x="512 522.1424 529.62079 533.09119 536.56158 544.03998"
         style="font-size:12px;font-variant:normal;font-weight:normal;writing-mode:lr-tb;fill:#000000;fill-opacity:1;fill-rule:nonzero;stroke:none;font-family:Helvetica;-inkscape-font-specification:Helvetica">Online</tspan></text>
<path
       inkscape:connector-curvature="0"
       id="path4227"
       style="fill:#ffffff;fill-opacity:1;fill-rule:nonzero;stroke:none"
       d="m 460,222 c 0,-13.25 -20.15,-24 -45,-24 -24.85,0 -45,10.75 -45,24 0,13.25 20.15,24 45,24 24.85,0 45,-10.75 45,-24 z" /><path
       inkscape:connector-curvature="0"
       id="path4229"
       style="fill:#00ff00;stroke:#000000;stroke-width:2;stroke-linecap:round;stroke-linejoin:round;stroke-miterlimit:10;stroke-opacity:1;stroke-dasharray:none;fill-opacity:0.42009132999999999"
       d="m 460,222 c 0,-13.25 -20.15,-24 -45,-24 -24.85,0 -45,10.75 -45,24 0,13.25 20.15,24 45,24 24.85,0 45,-10.75 45,-24 z" /><text
       id="text4231"
       transform="scale(1,-1)"
       x="385"
       y="-217"><tspan
         id="tspan4233"
         sodipodi:role="line"
         y="-217"
         x="385 393.59372 400.85541 407.44513 414.03485 423.28854 430.55026 435.13599"
         style="font-size:12px;font-variant:normal;font-weight:normal;writing-mode:lr-tb;fill:#000000;fill-opacity:1;fill-rule:nonzero;stroke:none;font-family:Helvetica;-inkscape-font-specification:Helvetica">Password</tspan></text>
<path
       inkscape:connector-curvature="0"
       id="path4235"
       style="fill:#ffffff;fill-opacity:1;fill-rule:nonzero;stroke:none"
       d="m 399,122 c 0,-13.25 -18.13,-24 -40.5,-24 -22.37,0 -40.5,10.75 -40.5,24 0,13.25 18.13,24 40.5,24 22.37,0 40.5,-10.75 40.5,-24 z" /><path
       inkscape:connector-curvature="0"
       id="path4237"
       style="fill:none;stroke:#000000;stroke-width:2;stroke-linecap:round;stroke-linejoin:round;stroke-miterlimit:10;stroke-opacity:1;stroke-dasharray:none"
       d="m 399,122 c 0,-13.25 -18.13,-24 -40.5,-24 -22.37,0 -40.5,10.75 -40.5,24 0,13.25 18.13,24 40.5,24 22.37,0 40.5,-10.75 40.5,-24 z" /><text
       id="text4239"
       transform="scale(1,-1)"
       x="333"
       y="-117"><tspan
         id="tspan4241"
         sodipodi:role="line"
         y="-117"
         x="333 341.65887 348.98572 352.30457 358.95944 366.28632 369.60516 376.93201"
         style="font-size:12px;font-variant:normal;font-weight:normal;writing-mode:lr-tb;fill:#000000;fill-opacity:1;fill-rule:nonzero;stroke:none;font-family:Helvetica;-inkscape-font-specification:Helvetica">Phishing</tspan></text>
<path
       inkscape:connector-curvature="0"
       id="path4243"
       style="fill:#ffffff;fill-opacity:1;fill-rule:nonzero;stroke:none"
       d="m 522,122 c 0,-13.25 -22.83,-24 -51,-24 -28.17,0 -51,10.75 -51,24 0,13.25 22.83,24 51,24 28.17,0 51,-10.75 51,-24 z" /><path
       inkscape:connector-curvature="0"
       id="path4245"
       style="fill:#00ff00;stroke:#000000;stroke-width:2;stroke-linecap:round;stroke-linejoin:round;stroke-miterlimit:10;stroke-opacity:1;stroke-dasharray:none;fill-opacity:0.42009132999999999"
       d="m 522,122 c 0,-13.25 -22.83,-24 -51,-24 -28.17,0 -51,10.75 -51,24 0,13.25 22.83,24 51,24 28.17,0 51,-10.75 51,-24 z" /><text
       id="text4247"
       transform="scale(1,-1)"
       x="437"
       y="-117"><tspan
         id="tspan4249"
         sodipodi:role="line"
         y="-117"
         x="437 445.71332 453.09467 459.80399 463.8493 471.23065 478.61197 485.99332 493.37463 500.75598"
         style="font-size:12px;font-variant:normal;font-weight:normal;writing-mode:lr-tb;fill:#000000;fill-opacity:1;fill-rule:nonzero;stroke:none;font-family:Helvetica;-inkscape-font-specification:Helvetica">Key Logger</tspan></text>
<path
       inkscape:connector-curvature="0"
       id="path4251"
       style="fill:#ffffff;fill-opacity:1;fill-rule:nonzero;stroke:none"
       d="m 585,222 c 0,-13.25 -23.06,-24 -51.5,-24 -28.44,0 -51.5,10.75 -51.5,24 0,13.25 23.06,24 51.5,24 28.44,0 51.5,-10.75 51.5,-24 z" /><path
       inkscape:connector-curvature="0"
       id="path4253"
       style="fill:#00ff00;stroke:#000000;stroke-width:2;stroke-linecap:round;stroke-linejoin:round;stroke-miterlimit:10;stroke-opacity:1;stroke-dasharray:none;fill-opacity:0.42009132999999999"
       d="m 585,222 c 0,-13.25 -23.06,-24 -51.5,-24 -28.44,0 -51.5,10.75 -51.5,24 0,13.25 23.06,24 51.5,24 28.44,0 51.5,-10.75 51.5,-24 z" /><text
       id="text4255"
       transform="scale(1,-1)"
       x="500"
       y="-217"><tspan
         id="tspan4257"
         sodipodi:role="line"
         y="-217"
         x="500 509.40051 516.13702 523.54547 528.27802 532.35052 541.75098 549.15948 559.89197"
         style="font-size:12px;font-variant:normal;font-weight:normal;writing-mode:lr-tb;fill:#000000;fill-opacity:1;fill-rule:nonzero;stroke:none;font-family:Helvetica;-inkscape-font-specification:Helvetica">User Name</tspan></text>
<path
       inkscape:connector-curvature="0"
       id="path4259"
       style="fill:#ffffff;fill-opacity:1;fill-rule:nonzero;stroke:none"
       d="m 684,222 c 0,-13.25 -17.46,-24 -39,-24 -21.54,0 -39,10.75 -39,24 0,13.25 17.46,24 39,24 21.54,0 39,-10.75 39,-24 z" /><path
       inkscape:connector-curvature="0"
       id="path4261"
       style="fill:#00ff00;stroke:#000000;stroke-width:2;stroke-linecap:round;stroke-linejoin:round;stroke-miterlimit:10;stroke-opacity:1;stroke-dasharray:none;fill-opacity:0.42009132999999999"
       d="m 684,222 c 0,-13.25 -17.46,-24 -39,-24 -21.54,0 -39,10.75 -39,24 0,13.25 17.46,24 39,24 21.54,0 39,-10.75 39,-24 z" /><text
       id="text4263"
       transform="scale(1,-1)"
       x="620"
       y="-217"><tspan
         id="tspan4265"
         sodipodi:role="line"
         y="-217"
         x="620 630.862 638.40002 641.92999 651.46002 658.99799 663.85999"
         style="font-size:12px;font-variant:normal;font-weight:normal;writing-mode:lr-tb;fill:#000000;fill-opacity:1;fill-rule:nonzero;stroke:none;font-family:Helvetica;-inkscape-font-specification:Helvetica">Malware</tspan></text>
<path
       inkscape:connector-curvature="0"
       id="path4267"
       style="fill:#ffffff;fill-opacity:1;fill-rule:nonzero;stroke:none"
       d="m 641,122 c 0,-13.25 -17.01,-24 -38,-24 -20.99,0 -38,10.75 -38,24 0,13.25 17.01,24 38,24 20.99,0 38,-10.75 38,-24 z" /><path
       inkscape:connector-curvature="0"
       id="path4269"
       style="fill:#00ff00;stroke:#000000;stroke-width:2;stroke-linecap:round;stroke-linejoin:round;stroke-miterlimit:10;stroke-opacity:1;stroke-dasharray:none;fill-opacity:0.42009132999999999"
       d="m 641,122 c 0,-13.25 -17.01,-24 -38,-24 -20.99,0 -38,10.75 -38,24 0,13.25 17.01,24 38,24 20.99,0 38,-10.75 38,-24 z" /><text
       id="text4271"
       transform="scale(1,-1)"
       x="578"
       y="-117"><tspan
         id="tspan4273"
         sodipodi:role="line"
         y="-117"
         x="578 586.81799 591.62799 599.11401 608.59198 615.40601 622.89197"
         style="font-size:12px;font-variant:normal;font-weight:normal;writing-mode:lr-tb;fill:#000000;fill-opacity:1;fill-rule:nonzero;stroke:none;font-family:Helvetica;-inkscape-font-specification:Helvetica">Browser</tspan></text>
<path
       inkscape:connector-curvature="0"
       id="path4275"
       style="fill:#ffffff;fill-opacity:1;fill-rule:nonzero;stroke:none"
       d="m 711,122 c 0,-13.25 -10.75,-24 -24,-24 -13.25,0 -24,10.75 -24,24 0,13.25 10.75,24 24,24 13.25,0 24,-10.75 24,-24 z" /><path
       inkscape:connector-curvature="0"
       id="path4277"
       style="fill:#00ff00;stroke:#000000;stroke-width:2;stroke-linecap:round;stroke-linejoin:round;stroke-miterlimit:10;stroke-opacity:1;stroke-dasharray:none;fill-opacity:0.42009132999999999"
       d="m 711,122 c 0,-13.25 -10.75,-24 -24,-24 -13.25,0 -24,10.75 -24,24 0,13.25 10.75,24 24,24 13.25,0 24,-10.75 24,-24 z" /><text
       id="text4279"
       transform="scale(1,-1)"
       x="679"
       y="-117"><tspan
         id="tspan4281"
         sodipodi:role="line"
         y="-117"
         x="679 688.06"
         style="font-size:12px;font-variant:normal;font-weight:normal;writing-mode:lr-tb;fill:#000000;fill-opacity:1;fill-rule:nonzero;stroke:none;font-family:Helvetica;-inkscape-font-specification:Helvetica">OS</tspan></text>
<text
       xml:space="preserve"
       style="font-size:28.79999924px;font-style:normal;font-variant:normal;font-weight:normal;font-stretch:normal;line-height:125%;letter-spacing:0px;word-spacing:0px;fill:#000000;fill-opacity:1;stroke:none;font-family:Arial;-inkscape-font-specification:Arial"
       x="-1.7296872"
       y="-111.65"
       id="text4538"
       sodipodi:linespacing="125%"
       transform="scale(1,-1)"><tspan
         sodipodi:role="line"
         id="tspan4540"
         x="-1.7296872"
         y="-111.65">1</tspan></text>
<text
       xml:space="preserve"
       style="font-size:28.79999924px;font-style:normal;font-variant:normal;font-weight:normal;font-stretch:normal;line-height:125%;letter-spacing:0px;word-spacing:0px;fill:#000000;fill-opacity:1;stroke:none;font-family:Arial;-inkscape-font-specification:Arial"
       x="124.50156"
       y="-211.64999"
       id="text4542"
       sodipodi:linespacing="125%"
       transform="scale(1,-1)"><tspan
         sodipodi:role="line"
         id="tspan4544"
         x="124.50156"
         y="-211.64999">2</tspan></text>
<text
       xml:space="preserve"
       style="font-size:28.79999924px;font-style:normal;font-variant:normal;font-weight:normal;font-stretch:normal;line-height:125%;letter-spacing:0px;word-spacing:0px;fill:#000000;fill-opacity:1;stroke:none;font-family:Arial;-inkscape-font-specification:Arial"
       x="466.29062"
       y="-211.83281"
       id="text4546"
       sodipodi:linespacing="125%"
       transform="scale(1,-1)"><tspan
         sodipodi:role="line"
         id="tspan4548"
         x="466.29062"
         y="-211.83281">3</tspan></text>
<text
       xml:space="preserve"
       style="font-size:28.79999924px;font-style:normal;font-variant:normal;font-weight:normal;font-stretch:normal;line-height:125%;letter-spacing:0px;word-spacing:0px;fill:#000000;fill-opacity:1;stroke:none;font-family:Arial;-inkscape-font-specification:Arial"
       x="549.375"
       y="-111.69218"
       id="text4550"
       sodipodi:linespacing="125%"
       transform="scale(1,-1)"><tspan
         sodipodi:role="line"
         id="tspan4552"
         x="549.375"
         y="-111.69218">4</tspan></text>
<text
       xml:space="preserve"
       style="font-size:28.79999924px;font-style:normal;font-variant:normal;font-weight:normal;font-stretch:normal;line-height:125%;letter-spacing:0px;word-spacing:0px;fill:#000000;fill-opacity:1;stroke:none;font-family:Arial;-inkscape-font-specification:Arial"
       x="404.13593"
       y="-112.00859"
       id="text4554"
       sodipodi:linespacing="125%"
       transform="scale(1,-1)"><tspan
         sodipodi:role="line"
         id="tspan4556"
         x="404.13593"
         y="-112.00859">5</tspan></text>
<text
       xml:space="preserve"
       style="font-size:28.79999924px;font-style:normal;font-variant:normal;font-weight:normal;font-stretch:normal;line-height:125%;letter-spacing:0px;word-spacing:0px;fill:#000000;fill-opacity:1;stroke:none;font-family:Arial;-inkscape-font-specification:Arial"
       x="354.30469"
       y="-211.82578"
       id="text4558"
       sodipodi:linespacing="125%"
       transform="scale(1,-1)"><tspan
         sodipodi:role="line"
         id="tspan4560"
         x="354.30469"
         y="-211.82578">6</tspan></text>
<text
       xml:space="preserve"
       style="font-size:28.79999924px;font-style:normal;font-variant:normal;font-weight:normal;font-stretch:normal;line-height:125%;letter-spacing:0px;word-spacing:0px;fill:#000000;fill-opacity:1;stroke:none;font-family:Arial;-inkscape-font-specification:Arial"
       x="194.29062"
       y="-211.82578"
       id="text4562"
       sodipodi:linespacing="125%"
       transform="scale(1,-1)"><tspan
         sodipodi:role="line"
         id="tspan4564"
         x="194.29062"
         y="-211.82578">7</tspan></text>
<text
       xml:space="preserve"
       style="font-size:28.79999924px;font-style:normal;font-variant:normal;font-weight:normal;font-stretch:normal;line-height:125%;letter-spacing:0px;word-spacing:0px;fill:#000000;fill-opacity:1;stroke:none;font-family:Arial;-inkscape-font-specification:Arial"
       x="159.24844"
       y="-310.82578"
       id="text4566"
       sodipodi:linespacing="125%"
       transform="scale(1,-1)"><tspan
         sodipodi:role="line"
         id="tspan4568"
         x="159.24844"
         y="-310.82578">8</tspan></text>
<text
       xml:space="preserve"
       style="font-size:28.79999924px;font-style:normal;font-variant:normal;font-weight:normal;font-stretch:normal;line-height:125%;letter-spacing:0px;word-spacing:0px;fill:#000000;fill-opacity:1;stroke:none;font-family:Arial;-inkscape-font-specification:Arial"
       x="647.24841"
       y="-111.82578"
       id="text4570"
       sodipodi:linespacing="125%"
       transform="scale(1,-1)"><tspan
         sodipodi:role="line"
         id="tspan4572"
         x="647.24841"
         y="-111.82578">9</tspan></text>
<text
       xml:space="preserve"
       style="font-size:28.79999924px;font-style:normal;font-variant:normal;font-weight:normal;font-stretch:normal;line-height:125%;letter-spacing:0px;word-spacing:0px;fill:#000000;fill-opacity:1;stroke:none;font-family:Arial;-inkscape-font-specification:Arial"
       x="574.32971"
       y="-211.82578"
       id="text4574"
       sodipodi:linespacing="125%"
       transform="scale(1,-1)"><tspan
         sodipodi:role="line"
         id="tspan4576"
         x="574.32971"
         y="-211.82578">10</tspan></text>
<text
       xml:space="preserve"
       style="font-size:28.79999924px;font-style:normal;font-variant:normal;font-weight:normal;font-stretch:normal;line-height:125%;letter-spacing:0px;word-spacing:0px;fill:#000000;fill-opacity:1;stroke:none;font-family:Arial;-inkscape-font-specification:Arial"
       x="474.37656"
       y="-310.64999"
       id="text4578"
       sodipodi:linespacing="125%"
       transform="scale(1,-1)"><tspan
         sodipodi:role="line"
         id="tspan4580"
         x="474.37656"
         y="-310.64999">11</tspan></text>
<text
       xml:space="preserve"
       style="font-size:28.79999924px;font-style:normal;font-variant:normal;font-weight:normal;font-stretch:normal;line-height:125%;letter-spacing:0px;word-spacing:0px;fill:#000000;fill-opacity:1;stroke:none;font-family:Arial;-inkscape-font-specification:Arial"
       x="269.47031"
       y="-409.64999"
       id="text4582"
       sodipodi:linespacing="125%"
       transform="scale(1,-1)"><tspan
         sodipodi:role="line"
         id="tspan4584"
         x="269.47031"
         y="-409.64999">12</tspan></text>
</g></svg>